summarize-layer-by-huc12 • middlesnake
…
returns huc12 (numeric code) and acres. If
you want the watershed name add it

columbia_flooded_huc12 %>%
    dplyr::left_join(columbia_huc12 %>% 
                       select(name,huc12)
                     )
#> Joining with `by = join_by(huc12)`
#> # A tibble: 35 × 4
#>    huc12        acres name                                              geometry
#>    <chr>        <dbl> <chr>                                        <POLYGON [°]>
#>  1 170601070807 1676. Flagpole Gulch-Snake River       ((-118.0089 46.55987, -1…
#>  2 170601070608 1437. Town of Marengo-Tucannon River   ((-117.7862 46.46699, -1…
#>  3 170601070808  995. Choke Cherry Spring-Snake River  ((-118.0268 46.58357, -1…
#>  4 170701020401  801. Payne Hollow-Touchet River       ((-117.9852 46.31925, -1…
#>  5 170701020501  766. Upper Whetstone Hollow           ((-117.7978 46.37677, -1…
#>  6 170601070804  653. Town of Central Ferry-Snake Riv… ((-117.8523 46.61019, -1…
#>  7 170601070606  525. Hartsock Grade-Tucannon River    ((-117.6807 46.3813, -11…
#>  8 170701020304  493. South Fork Touchet River         ((-117.9051 46.27083, -1…
#>  9 170701020303  412. Wolf Fork                        ((-117.8324 46.18208, -1…
#> 10 170701020402  406. Whiskey Creek                    ((-117.9633 46.21827, -1…
#> # ℹ 25 more rows
…
